%YAML 1.1
%TAG !u! tag:unity3d.com,2011:
--- !u!74 &7400000
AnimationClip:
  m_ObjectHideFlags: 0
  m_PrefabParentObject: {fileID: 0}
  m_PrefabInternal: {fileID: 0}
  m_Name: Dance
  serializedVersion: 4
  m_AnimationType: 2
  m_Compressed: 0
  m_UseHighQualityCurve: 1
  m_RotationCurves: []
  m_CompressedRotationCurves: []
  m_PositionCurves: []
  m_ScaleCurves: []
  m_FloatCurves: []
  m_PPtrCurves:
  - curve:
    - time: 0
      value: {fileID: 21300000, guid: 8b15e95e56560455fb826dc5906ed89d, type: 3}
    - time: .0833333358
      value: {fileID: 21300000, guid: aab9c60d8060d4a00976b0085b3b440a, type: 3}
    - time: .166666672
      value: {fileID: 21300000, guid: e1b349bb71bb54d2485623c34fecb2c7, type: 3}
    - time: .25
      value: {fileID: 21300000, guid: cdd5b275266a24d8e9dd257d4f8ef089, type: 3}
    - time: .333333343
      value: {fileID: 21300000, guid: 504e907418d3448df91162f6b23a88e8, type: 3}
    - time: .416666657
      value: {fileID: 21300000, guid: 7c3f388239ec5484182fef4e6c50f128, type: 3}
    - time: .5
      value: {fileID: 21300000, guid: f89a287564a9041acb25e853bffca387, type: 3}
    - time: .583333313
      value: {fileID: 21300000, guid: 4ce0f9099057a49e488b0f19a3bff9c0, type: 3}
    - time: .666666687
      value: {fileID: 21300000, guid: 1c180d469048747a3b41fefd4238b2db, type: 3}
    - time: .75
      value: {fileID: 21300000, guid: c36512e61a56f4d7aa5320c8deb7676c, type: 3}
    - time: .833333313
      value: {fileID: 21300000, guid: 43ece2463dea04786a986dc250d3aad8, type: 3}
    - time: .916666687
      value: {fileID: 21300000, guid: 67c0dfb6008be436fb5cb390ca688b80, type: 3}
    - time: 1
      value: {fileID: 21300000, guid: 2da85f99281f0435ba4089c8ca928492, type: 3}
    - time: 1.08333337
      value: {fileID: 21300000, guid: 8098027452be145428f866b9ec4c91ac, type: 3}
    - time: 1.16666663
      value: {fileID: 21300000, guid: 0be152916192f45ad9a389774008f4f5, type: 3}
    - time: 1.25
      value: {fileID: 21300000, guid: 31d8960359867487ba670684d4a1f82f, type: 3}
    - time: 1.33333337
      value: {fileID: 21300000, guid: 3045e6f20077c4306921fe50bc7516a6, type: 3}
    - time: 1.41666663
      value: {fileID: 21300000, guid: 0f8bb140e0a16437e997d70a30b36630, type: 3}
    - time: 1.5
      value: {fileID: 21300000, guid: e675c7f19f12b406abddfb1bc875d0b6, type: 3}
    - time: 1.58333337
      value: {fileID: 21300000, guid: 3342dc8a590d44aa390f5716947e39a6, type: 3}
    - time: 1.66666663
      value: {fileID: 21300000, guid: c169007458d404ceb9334973259f954b, type: 3}
    - time: 1.75
      value: {fileID: 21300000, guid: f2f0ca2173cad4ed4b782767948e2185, type: 3}
    - time: 1.83333337
      value: {fileID: 21300000, guid: 9d0669bb32b274e8686ca4649161ffe8, type: 3}
    - time: 1.91666663
      value: {fileID: 21300000, guid: 111baef7b22174d13af6565365a555a4, type: 3}
    - time: 2
      value: {fileID: 21300000, guid: 622f5352d867e4ccfb46312f7b458a95, type: 3}
    - time: 2.08333325
      value: {fileID: 21300000, guid: cc087573428e34f4d8dfa778fd876c5c, type: 3}
    - time: 2.16666675
      value: {fileID: 21300000, guid: 6b5127d6bafec41b6bdde36792d162b6, type: 3}
    - time: 2.25
      value: {fileID: 21300000, guid: 382d090c3fb2748e88aca0a7daf248eb, type: 3}
    - time: 2.33333325
      value: {fileID: 21300000, guid: 43030cf31f785410a9c452078e6336be, type: 3}
    - time: 2.41666675
      value: {fileID: 21300000, guid: 972c74913413f40fb925925e84593f16, type: 3}
    - time: 2.5
      value: {fileID: 21300000, guid: cee35bf0103fe4fe489c8bc2fa03ae1d, type: 3}
    - time: 2.58333325
      value: {fileID: 21300000, guid: b826e3d938a134a0c8d11a7426218ba8, type: 3}
    - time: 2.66666675
      value: {fileID: 21300000, guid: 13c19060b14fb4ae48c2a61de1f21ef6, type: 3}
    - time: 2.75
      value: {fileID: 21300000, guid: b7c448697396248648d4c2ae0c5fa31f, type: 3}
    - time: 2.83333325
      value: {fileID: 21300000, guid: 24693ace74ffc4dbf8d1c87ae1604157, type: 3}
    - time: 2.91666675
      value: {fileID: 21300000, guid: 83ac8379db7094289b1639e417f2c19f, type: 3}
    - time: 3
      value: {fileID: 21300000, guid: de43f6eccb9454dab837319653895f26, type: 3}
    - time: 3.08333325
      value: {fileID: 21300000, guid: 92ca8c2c32deb42d98ac4efe910fc32e, type: 3}
    - time: 3.16666675
      value: {fileID: 21300000, guid: 6b0ef7ef4b110472fbd4341443fb933a, type: 3}
    - time: 3.25
      value: {fileID: 21300000, guid: a2c094cee51aa41b6a41d52d67aee2b2, type: 3}
    - time: 3.33333325
      value: {fileID: 21300000, guid: 5182165dfe63247d2aead457fecaa35e, type: 3}
    - time: 3.41666675
      value: {fileID: 21300000, guid: ecc3d22e7f47045ce8b5fa472014e342, type: 3}
    - time: 3.5
      value: {fileID: 21300000, guid: 4d2217909b14046c380fbf9d6df46ca7, type: 3}
    - time: 3.58333325
      value: {fileID: 21300000, guid: 4b8ce5e81ae584f1c8a172ff03971ce7, type: 3}
    - time: 3.66666675
      value: {fileID: 21300000, guid: 59ff0ff061a5d49c296a391ffb77ce2e, type: 3}
    - time: 3.75
      value: {fileID: 21300000, guid: 28ce0b1ac6ddc4cb4a49bc9b69effb94, type: 3}
    - time: 3.83333325
      value: {fileID: 21300000, guid: 9a687f35a87e24de280374dd707f9461, type: 3}
    - time: 3.91666675
      value: {fileID: 21300000, guid: c88845ab523924ff1bba8d4a9b376f99, type: 3}
    - time: 4
      value: {fileID: 21300000, guid: 8ae67b7469117419eabb5957f2e1ef19, type: 3}
    - time: 4.08333349
      value: {fileID: 21300000, guid: 23d06c12276f047a39c0fb5d2cfb7a04, type: 3}
    - time: 4.16666651
      value: {fileID: 21300000, guid: 5f82348f802e445c4809df5f4c92f5f6, type: 3}
    - time: 4.25
      value: {fileID: 21300000, guid: 598fb287b3f124cbeae95724df4932d1, type: 3}
    - time: 4.33333349
      value: {fileID: 21300000, guid: c545f2919c55a4db7ad0eda8f31950b3, type: 3}
    - time: 4.41666651
      value: {fileID: 21300000, guid: d2558bf3362ce4efabaa163d483fcda8, type: 3}
    - time: 4.5
      value: {fileID: 21300000, guid: 965d8e5520a274aad875c3191a770bf4, type: 3}
    - time: 4.58333349
      value: {fileID: 21300000, guid: d507cfcad2b114a3aa1c5733612d95ba, type: 3}
    - time: 4.66666651
      value: {fileID: 21300000, guid: ab76be358000f4434b9ec107d805cbde, type: 3}
    - time: 4.75
      value: {fileID: 21300000, guid: 6cf87fb808a2948d6a30656808924f23, type: 3}
    - time: 4.83333349
      value: {fileID: 21300000, guid: 5c6e1c6157f0f431284374b26abc1805, type: 3}
    - time: 4.91666651
      value: {fileID: 21300000, guid: 5055c3af373784b548a7af29376e3c66, type: 3}
    - time: 5
      value: {fileID: 21300000, guid: a905a961335e54a0fa117f6669ce4863, type: 3}
    - time: 5.08333349
      value: {fileID: 21300000, guid: 457245201dfd042dcaa951461d0eec0d, type: 3}
    - time: 5.16666651
      value: {fileID: 21300000, guid: 345c07d690e7248daa564ba2eac700c0, type: 3}
    - time: 5.25
      value: {fileID: 21300000, guid: ef5c51036a6fa45e581e98fc86d87428, type: 3}
    - time: 5.33333349
      value: {fileID: 21300000, guid: 8eb2f66a5b6ca44909e70bdc3559547a, type: 3}
    - time: 5.41666651
      value: {fileID: 21300000, guid: ac2be33cf487d43d290dd29173f37ec9, type: 3}
    - time: 5.5
      value: {fileID: 21300000, guid: 12bf57856adbe4f45bc638fc94999d16, type: 3}
    - time: 5.58333349
      value: {fileID: 21300000, guid: e38b62e8e83b749edbf37730be6ce679, type: 3}
    - time: 5.66666651
      value: {fileID: 21300000, guid: 208e097ab107b4c9b934a8f15db041b4, type: 3}
    - time: 5.75
      value: {fileID: 21300000, guid: f8cd6446d79cd4d59857ba5565e2362c, type: 3}
    - time: 5.83333349
      value: {fileID: 21300000, guid: d19f069e353664ded8518ec0d3ca6db6, type: 3}
    - time: 5.91666651
      value: {fileID: 21300000, guid: e912e9a729cb44319860220591a328a3, type: 3}
    - time: 6
      value: {fileID: 21300000, guid: ab40fe49bdccb4c8b946db0024bd91d1, type: 3}
    - time: 6.08333349
      value: {fileID: 21300000, guid: a6d783b8b8e144425ad60610b57ad131, type: 3}
    - time: 6.16666651
      value: {fileID: 21300000, guid: ee3da0da5f607419b99eb54f44c5f1aa, type: 3}
    - time: 6.25
      value: {fileID: 21300000, guid: fdd109f3f3ee143afb902e82ffc9a5cf, type: 3}
    - time: 6.33333349
      value: {fileID: 21300000, guid: a6ad3833bc44d46579abc9592ae5552a, type: 3}
    - time: 6.41666651
      value: {fileID: 21300000, guid: 62c3548a6a93d4e9480f36fe5441c800, type: 3}
    - time: 6.5
      value: {fileID: 21300000, guid: 9bfcefc859aad49f485299879cfb389a, type: 3}
    - time: 6.58333349
      value: {fileID: 21300000, guid: 241d7c4a4d2a24343a26482b7ff33f15, type: 3}
    - time: 6.66666651
      value: {fileID: 21300000, guid: 806b4b78ee4404591a4ba886a32f52ff, type: 3}
    - time: 6.75
      value: {fileID: 21300000, guid: b65c14a1160134b48809d2bbfaeeb4db, type: 3}
    - time: 6.83333349
      value: {fileID: 21300000, guid: 48c31f59323da43d8a1fe631dc2a2ced, type: 3}
    - time: 6.91666651
      value: {fileID: 21300000, guid: 4a980778068a341b49f093ad491cf591, type: 3}
    - time: 7
      value: {fileID: 21300000, guid: 9719abc2b52bf460385a83d592f2d744, type: 3}
    - time: 7.08333349
      value: {fileID: 21300000, guid: 2e50344f0e5d640549ef91871c62fea0, type: 3}
    - time: 7.16666651
      value: {fileID: 21300000, guid: 33ee7ccd14d1846c791dbe03480614b0, type: 3}
    - time: 7.25
      value: {fileID: 21300000, guid: 64d8e837bb72944baa253c4bf1b82013, type: 3}
    - time: 7.33333349
      value: {fileID: 21300000, guid: 0b3bf2efac94d44d28864b5b91a5ff1d, type: 3}
    - time: 7.41666651
      value: {fileID: 21300000, guid: 91a716a7499af429f884dc6633aaa962, type: 3}
    - time: 7.5
      value: {fileID: 21300000, guid: d4cfbd97e20274c8283ada7806b3db79, type: 3}
    - time: 7.58333349
      value: {fileID: 21300000, guid: 6716750a117ea476193c9542405931a0, type: 3}
    - time: 7.66666651
      value: {fileID: 21300000, guid: 4c2d1c86d156845b7ab0f759462d3bde, type: 3}
    - time: 7.75
      value: {fileID: 21300000, guid: 0f34a8457f35b47d6ab855b633faf6e2, type: 3}
    - time: 7.83333349
      value: {fileID: 21300000, guid: 3d76f527d91504d11bb1c5bd9e94eaac, type: 3}
    - time: 7.91666651
      value: {fileID: 21300000, guid: 5aead42c289a2464fbaef0e5f403fd64, type: 3}
    - time: 8
      value: {fileID: 21300000, guid: 805e379e8f5c947cd8842daa873ae176, type: 3}
    - time: 8.08333302
      value: {fileID: 21300000, guid: db06833c7f704433eb33c656b5057f25, type: 3}
    - time: 8.16666698
      value: {fileID: 21300000, guid: 2f0c470d315704241a0ef1184731c1b5, type: 3}
    - time: 8.25
      value: {fileID: 21300000, guid: 52756eb32a68e46e294286a4d1720c17, type: 3}
    - time: 8.33333302
      value: {fileID: 21300000, guid: a3c3d5bdac79b487db802a8db57d8fe1, type: 3}
    - time: 8.41666698
      value: {fileID: 21300000, guid: b2a16a0a3c3374e2ebcb4e8ea75c5375, type: 3}
    - time: 8.5
      value: {fileID: 21300000, guid: 3dcd8e5e997ad40bb9a9a5bd09f492ab, type: 3}
    - time: 8.58333302
      value: {fileID: 21300000, guid: 50ae04e513f2f47a5bc5b19a356de942, type: 3}
    - time: 8.66666698
      value: {fileID: 21300000, guid: 6868ff692814940d7b201013e6a99915, type: 3}
    - time: 8.75
      value: {fileID: 21300000, guid: e0f67bbc5ceae478cb185ecde75e9fc6, type: 3}
    - time: 8.83333302
      value: {fileID: 21300000, guid: 6bf46c2b9f2a34cc8bdfb240dbb70d0a, type: 3}
    - time: 8.91666698
      value: {fileID: 21300000, guid: 75850bfe21eae4c68bee433c18731b14, type: 3}
    - time: 9
      value: {fileID: 21300000, guid: bdcb2b56bfff84bb180e09e1e2068e58, type: 3}
    - time: 9.08333302
      value: {fileID: 21300000, guid: 847aa54e6a3e9472fbeba041cef40412, type: 3}
    - time: 9.16666698
      value: {fileID: 21300000, guid: b6af3b18f8bf940cc9cd4cb2b96b9a0f, type: 3}
    - time: 9.25
      value: {fileID: 21300000, guid: 7bc70cc0a9bcb4b309b6259f4bf05430, type: 3}
    - time: 9.33333302
      value: {fileID: 21300000, guid: 016487b54180c4a2d8decd6fcac82865, type: 3}
    - time: 9.41666698
      value: {fileID: 21300000, guid: b2e6839b755ae4230a987ec0e70453b6, type: 3}
    - time: 9.5
      value: {fileID: 21300000, guid: 21893bd8e6438429db13fc94579b4d81, type: 3}
    - time: 9.58333302
      value: {fileID: 21300000, guid: 24424e73c9df5400aaf5782ee0385240, type: 3}
    - time: 9.66666698
      value: {fileID: 21300000, guid: 39cfb8707187c44d490e284d494e87a8, type: 3}
    - time: 9.75
      value: {fileID: 21300000, guid: 7b241ddb766874f5fbf9aaea609d5aab, type: 3}
    - time: 9.83333302
      value: {fileID: 21300000, guid: ff37bca7b9c3341b296306a2bb62cb50, type: 3}
    - time: 9.91666698
      value: {fileID: 21300000, guid: 6aa71db8810434f7dadc16f62008a9f7, type: 3}
    - time: 10
      value: {fileID: 21300000, guid: 59f9358c425784e87a092ec8e8ace304, type: 3}
    - time: 10.083333
      value: {fileID: 21300000, guid: bbd0543aee23340cfafcc2649081b18d, type: 3}
    - time: 10.166667
      value: {fileID: 21300000, guid: ee447c985b33a4a90a5e3b5c8f58737b, type: 3}
    - time: 10.25
      value: {fileID: 21300000, guid: c1f55aa9ff282440ca3523e91b7d0a60, type: 3}
    attribute: m_Sprite
    path: 
    classID: 212
    script: {fileID: 0}
  m_SampleRate: 12
  m_WrapMode: 0
  m_Bounds:
    m_Center: {x: 0, y: 0, z: 0}
    m_Extent: {x: 0, y: 0, z: 0}
  m_AnimationClipSettings:
    serializedVersion: 2
    m_StartTime: 0
    m_StopTime: 10.333333
    m_OrientationOffsetY: 0
    m_Level: 0
    m_CycleOffset: 0
    m_LoopTime: 1
    m_LoopBlend: 0
    m_LoopBlendOrientation: 0
    m_LoopBlendPositionY: 0
    m_LoopBlendPositionXZ: 0
    m_KeepOriginalOrientation: 0
    m_KeepOriginalPositionY: 1
    m_KeepOriginalPositionXZ: 0
    m_HeightFromFeet: 0
    m_Mirror: 0
  m_EditorCurves: []
  m_EulerEditorCurves: []
  m_Events: []
