%YAML 1.1
%TAG !u! tag:unity3d.com,2011:
--- !u!74 &7400000
AnimationClip:
  m_ObjectHideFlags: 0
  m_PrefabParentObject: {fileID: 0}
  m_PrefabInternal: {fileID: 0}
  m_Name: EricRun
  serializedVersion: 4
  m_AnimationType: 2
  m_Compressed: 0
  m_UseHighQualityCurve: 1
  m_RotationCurves: []
  m_CompressedRotationCurves: []
  m_PositionCurves: []
  m_ScaleCurves: []
  m_FloatCurves: []
  m_PPtrCurves:
  - curve:
    - time: 0
      value: {fileID: 21300000, guid: 0d1f8b1b45fa04c4b97f30e8f2e0d3b3, type: 3}
    - time: .0111111114
      value: {fileID: 21300000, guid: f3e378a6b35329947a498dd560a31810, type: 3}
    - time: .0222222228
      value: {fileID: 21300000, guid: e8eee273c4bb8fc4fa3c2768c8dc9004, type: 3}
    - time: .0333333351
      value: {fileID: 21300000, guid: 906b22b076fec9d48b23feafe85ac404, type: 3}
    - time: .0444444455
      value: {fileID: 21300000, guid: 9b70bd278c010d04b95a8e08d6122082, type: 3}
    - time: .055555556
      value: {fileID: 21300000, guid: 0616876ba2b90b547b84a25d0b0a9d33, type: 3}
    - time: .0666666701
      value: {fileID: 21300000, guid: 342d9223c29f2e14a813debb955f6269, type: 3}
    - time: .0777777806
      value: {fileID: 21300000, guid: d820e737429fc6a4ba497b02a5cb0692, type: 3}
    - time: .088888891
      value: {fileID: 21300000, guid: 8d094d4395d6af44795331719bac7bec, type: 3}
    - time: .100000001
      value: {fileID: 21300000, guid: 6caa06619e31e1b44a9319fd37e6568b, type: 3}
    - time: .111111112
      value: {fileID: 21300000, guid: 722ebedc9821a7f448b5c6aef6474db3, type: 3}
    - time: .122222222
      value: {fileID: 21300000, guid: 118ee710af69c624d9626947eeb3f4a8, type: 3}
    - time: .13333334
      value: {fileID: 21300000, guid: df02cda27e475be46adcbbb829ea1536, type: 3}
    - time: .144444451
      value: {fileID: 21300000, guid: 1fdeee38b098bdd408a5f9412cf3b26f, type: 3}
    - time: .155555561
      value: {fileID: 21300000, guid: b4d4a8b1d9e439945b24dd8ab2b5ef0b, type: 3}
    - time: .166666672
      value: {fileID: 21300000, guid: 8b66261fb910d2447affe08482cad667, type: 3}
    - time: .177777782
      value: {fileID: 21300000, guid: cedd2a5ebb55d1b45af92628643daa56, type: 3}
    - time: .188888893
      value: {fileID: 21300000, guid: e6cb88068c45812479088dfe4084ca9f, type: 3}
    - time: .200000003
      value: {fileID: 21300000, guid: e4a9e33a267ef9d49ad2cbb49c3cefbd, type: 3}
    - time: .211111113
      value: {fileID: 21300000, guid: 167273a0bcfb8eb40a210edc6a88fb24, type: 3}
    - time: .222222224
      value: {fileID: 21300000, guid: 7ed1e03787c6efe4dbe58327b370f088, type: 3}
    - time: .233333334
      value: {fileID: 21300000, guid: 0aa22955e2ff33341bbbcd02491757c9, type: 3}
    - time: .244444445
      value: {fileID: 21300000, guid: 595586f531c217149a82718ecb2dcaf0, type: 3}
    - time: .25555557
      value: {fileID: 21300000, guid: 5075569047d90a54aa89a28bd591b7c2, type: 3}
    attribute: m_Sprite
    path: 
    classID: 212
    script: {fileID: 0}
  m_SampleRate: 90
  m_WrapMode: 0
  m_Bounds:
    m_Center: {x: 0, y: 0, z: 0}
    m_Extent: {x: 0, y: 0, z: 0}
  m_AnimationClipSettings:
    serializedVersion: 2
    m_StartTime: 0
    m_StopTime: .266666681
    m_OrientationOffsetY: 0
    m_Level: 0
    m_CycleOffset: 0
    m_LoopTime: 1
    m_LoopBlend: 0
    m_LoopBlendOrientation: 0
    m_LoopBlendPositionY: 0
    m_LoopBlendPositionXZ: 0
    m_KeepOriginalOrientation: 0
    m_KeepOriginalPositionY: 1
    m_KeepOriginalPositionXZ: 0
    m_HeightFromFeet: 0
    m_Mirror: 0
  m_EditorCurves: []
  m_EulerEditorCurves: []
  m_Events: []
